<svg width="18" height="18" viewBox="0 0 18 18" fill="none" xmlns="http://www.w3.org/2000/svg">
<path d="M1 3.52637V8.579C1 8.579 1 11.1053 6.34307 11.1053C6.79532 11.1053 7.20934 11.0872 7.58824 11.0541" stroke="black" stroke-linecap="round" stroke-linejoin="round"/>
<path d="M14.1763 3.52637V8.579" stroke="black" stroke-linecap="round" stroke-linejoin="round"/>
<path d="M7.58824 1C14.1765 1 14.1765 3.52632 14.1765 3.52632C14.1765 3.52632 14.1765 6.05263 7.58824 6.05263C1 6.05263 1 3.52632 1 3.52632C1 3.52632 1 1 7.58824 1Z" stroke="black" stroke-linecap="round" stroke-linejoin="round"/>
<path d="M7.58824 16.1579C1 16.1579 1 13.6316 1 13.6316V8.57898" stroke="black" stroke-linecap="round" stroke-linejoin="round"/>
<path d="M16.6076 11.386C15.8796 9.73372 14.2171 8.57898 12.2826 8.57898C10.214 8.57898 8.45621 9.89951 7.81985 11.7369" stroke="black" stroke-linecap="round" stroke-linejoin="round"/>
<path d="M14.6411 11.3859H16.6073C16.8242 11.3859 16.9999 11.2286 16.9999 11.0346V9.04675" stroke="black" stroke-linecap="round" stroke-linejoin="round"/>
<path d="M7.98047 14.1929C8.70847 15.8452 10.3709 16.9999 12.3055 16.9999C14.3741 16.9999 16.1319 15.6794 16.7682 13.842" stroke="black" stroke-linecap="round" stroke-linejoin="round"/>
<path d="M9.9472 14.1923H7.98097C7.76414 14.1923 7.58838 14.3495 7.58838 14.5435V16.5314" stroke="black" stroke-linecap="round" stroke-linejoin="round"/>
</svg>
