<svg width="32" height="32" viewBox="0 0 32 32" fill="none" xmlns="http://www.w3.org/2000/svg">
<circle cx="16" cy="16" r="15.5" stroke="#0E0E0E" />
<path d="M11.5 20.5509L15.9959 16.0255M20.4918 11.5L15.9959 16.0255M15.9959 16.0255L11.5 11.5M15.9959 16.0255L20.4918 20.5509" stroke="#0E0E0E" stroke-linecap="round" stroke-linejoin="round"/>
</svg>