<svg width="54" height="54" viewBox="0 0 54 54" fill="none" xmlns="http://www.w3.org/2000/svg">
<circle cx="27" cy="27" r="26.5" stroke="#0E0E0E" />
<circle cx="32.25" cy="22.5" r="12.5" stroke="#0E0E0E" />
<circle cx="22.25" cy="32.5" r="12.5" stroke="#0E0E0E" />
</svg>
