<svg width="54" height="54" viewBox="0 0 54 54" fill="none" xmlns="http://www.w3.org/2000/svg">
<circle cx="27" cy="27" r="26.5" stroke="#0E0E0E" />
<circle cx="27" cy="27" r="18.5" stroke="#0E0E0E" />
<path d="M27.817 27H44.7059M44.7059 27L40.8085 23M44.7059 27L40.8085 31" stroke="#0E0E0E" stroke-linecap="square" stroke-linejoin="round"/>
<path d="M27.817 27L8.9412 27M8.9412 27L13.2972 31M8.9412 27L13.2972 23" stroke="#0E0E0E" stroke-linecap="square" stroke-linejoin="round"/>
</svg>